…
``` r
ligand_activities <-  predict_ligand_activities(geneset = pemt_geneset,
                                                background_expressed_genes = background_expressed_genes,
                                                ligand_target_matrix = ligand_target_matrix,
                                                potential_ligands = potential_ligands)
```

Now, we want to rank the ligands based on their ligand activity (AUPR).
We will choose the top 20 ligands here - as opposed to the top 30 in the
main vignette - to avoid overcrowding the circos plot.

``` r
ligand_activities %>% arrange(-aupr_corrected) 
## # A tibble: 242 × 5
##    test_ligand auroc   aupr aupr_corrected pearson
##    <chr>       <dbl>  <dbl>          <dbl>   <dbl>
##  1 TGFB2       0.772 0.120          0.105    0.195
##  2 BMP8A       0.774 0.0852         0.0699   0.175
##  3 INHBA       0.777 0.0837         0.0685   0.122
##  4 CXCL12      0.714 0.0829         0.0676   0.141
##  5 GDF3        0.763 0.0788         0.0635   0.154
##  6 LTBP1       0.727 0.0762         0.0609   0.160
##  7 ACE         0.717 0.0740         0.0587   0.146
##  8 CCN2        0.736 0.0734         0.0581   0.141
##  9 TNXB        0.719 0.0717         0.0564   0.157
## 10 ENG         0.764 0.0703         0.0551   0.145
## # ℹ 232 more rows
…
