…
## object
## ...
## [1]
## [2]
## [3]
## [1]
## [2]
## [3]
## [1]
## [2]
## [3]
##   <environment: namespace:nichenetr>
## error
output_correlation_analysis %>% arrange(-pearson_regression) %>% select(pearson_regression, ligand)
## # A tibble: 131 x 2
##    pearson_regression ligand  
##                 <dbl> <chr>   
##  1              0.525 TNC     
##  2              0.497 TFPI    
##  3              0.491 SEMA5A  
##  4              0.488 ANXA1   
##  5              0.473 TNFSF13B
##  6              0.462 IBSP    
##  7              0.449 HDGF    
##  8              0.443 HSP90B1 
##  9              0.431 CALM3   
## 10              0.428 CXCL11  
## # ... with 121 more rows
```
…
