…
``` r
ligand_activities = predict_ligand_activities(geneset = geneset_oi, background_expressed_genes = background_expressed_genes, ligand_target_matrix = ligand_target_matrix, potential_ligands = potential_ligands)
```

Now, we want to rank the ligands based on their ligand activity. In our
validation study, we showed that the pearson correlation coefficient
(PCC) between a ligand’s target predictions and the observed
transcriptional response was the most informative measure to define
ligand activity. Therefore, we will rank the ligands based on their
pearson correlation coefficient.

``` r
ligand_activities %>% arrange(-pearson) 
## # A tibble: 131 x 4
##    test_ligand auroc   aupr pearson
##    <chr>       <dbl>  <dbl>   <dbl>
##  1 PTHLH       0.667 0.0720   0.128
##  2 CXCL12      0.680 0.0507   0.123
##  3 AGT         0.676 0.0581   0.120
##  4 TGFB3       0.689 0.0454   0.117
##  5 IL6         0.693 0.0510   0.115
##  6 INHBA       0.695 0.0502   0.113
##  7 ADAM17      0.672 0.0526   0.113
##  8 TNC         0.700 0.0444   0.109
##  9 CTGF        0.680 0.0473   0.108
## 10 FN1         0.679 0.0505   0.108
## # ... with 121 more rows
…
