…
``` r
data_source_network = infer_supporting_datasources(active_signaling_network,lr_network, sig_network , gr_network)
data_source_network 
## # A tibble: 249 x 5
##    from  to    source                        database             layer   
##    <chr> <chr> <chr>                         <chr>                <chr>   
##  1 SMAD1 LAMA3 harmonizome_TRANSFAC_CUR      harmonizome_gr       regulat~
##  2 SMAD1 LAMA3 pathwaycommons_controls_expr~ pathwaycommons_expr~ regulat~
##  3 SMAD2 LAMC2 harmonizome_CHEA              harmonizome_gr       regulat~
##  4 SMAD2 TNC   harmonizome_CHEA              harmonizome_gr       regulat~
##  5 SMAD2 TNC   regnetwork_source             regnetwork           regulat~
##  6 SMAD3 LAMA3 harmonizome_CHEA              harmonizome_gr       regulat~
##  7 SMAD3 LAMC2 harmonizome_CHEA              harmonizome_gr       regulat~
##  8 SMAD3 LAMC2 harmonizome_TRANSFAC_CUR      harmonizome_gr       regulat~
##  9 SMAD3 LAMC2 pathwaycommons_controls_expr~ pathwaycommons_expr~ regulat~
## 10 SMAD3 TNC   harmonizome_CHEA              harmonizome_gr       regulat~
## # ... with 239 more rows
```
