…
# Construct ligand-target matrix using only the potential ligands to save time
ligand_target_matrix_liana <- construct_ligand_target_matrix(weighted_networks = weighted_networks_liana, ligands = as.list(potential_ligands), algorithm = "PPR",
                                                       damping_factor = hyperparameter_list %>% filter(parameter == "damping_factor") %>% pull(avg_weight),
                                                       ltf_cutoff = hyperparameter_list %>% filter(parameter == "ltf_cutoff") %>% pull(avg_weight))

# Filter background genes and the gene set of interest to only the ones in the ligand-target matrix
background_expressed_genes <- expressed_genes_receiver %>% .[. %in% rownames(ligand_target_matrix_liana)]
geneset_oi <- geneset_oi %>% .[. %in% rownames(ligand_target_matrix_liana)]

# Perform ligand activity analysis
ligand_activities <- predict_ligand_activities(geneset = geneset_oi, background_expressed_genes = background_expressed_genes,
                                              ligand_target_matrix = ligand_target_matrix_liana, potential_ligands = potential_ligands)
ligand_activities <- ligand_activities %>% arrange(-aupr_corrected) %>% mutate(rank = rank(desc(aupr_corrected)))
ligand_activities
## # A tibble: 51 × 6
##    test_ligand auroc  aupr aupr_corrected pearson  rank
##    <chr>       <dbl> <dbl>          <dbl>   <dbl> <dbl>
##  1 Ebi3        0.663 0.389          0.244  0.300      1
##  2 H2-M3       0.608 0.292          0.147  0.179      2
##  3 H2-T23      0.611 0.278          0.133  0.153      3
##  4 Lck         0.621 0.268          0.122  0.103      4
##  5 H2-K1       0.605 0.268          0.122  0.141      5
##  6 Sirpa       0.613 0.263          0.117  0.143      6
##  7 Cd48        0.612 0.257          0.112  0.0860     7
##  8 Tgfb1       0.597 0.254          0.108  0.202      8
##  9 Ccl22       0.605 0.250          0.104  0.125      9
## 10 Ccl5        0.606 0.248          0.102  0.0343    10
## # ℹ 41 more rows
```
…
nichenet_output$ligand_activities
## # A tibble: 73 × 6
##    test_ligand auroc  aupr aupr_corrected pearson  rank
##    <chr>       <dbl> <dbl>          <dbl>   <dbl> <dbl>
##  1 Ebi3        0.663 0.390          0.244   0.301     1
##  2 Ptprc       0.642 0.310          0.165   0.167     2
##  3 H2-M3       0.608 0.292          0.146   0.179     3
##  4 H2-M2       0.611 0.279          0.133   0.153     5
##  5 H2-T10      0.611 0.279          0.133   0.153     5
##  6 H2-T22      0.611 0.279          0.133   0.153     5
##  7 H2-T23      0.611 0.278          0.132   0.153     7
##  8 H2-K1       0.605 0.268          0.122   0.142     8
##  9 H2-Q4       0.605 0.268          0.122   0.141    10
## 10 H2-Q6       0.605 0.268          0.122   0.141    10
## # ℹ 63 more rows
```
…
