…
As you can see, the resulting table now show the rankings for
*ligand-receptor interactions of a sender-receiver cell type pair*,
instead of just the prioritized ligands. Cxcl10 now went up in the
rankings due to both the high expression of its potential receptor Dpp4
and its high celltype specificity (`scaled_lfc_ligand`). You can also
see this in the visualizations further below.

We included all columns here, but if you just want relevant columns that
were used to calculate the ranking:

``` r
prior_table %>% select(c('sender', 'receiver', 'ligand', 'receptor', 'scaled_p_val_adapted_ligand', 'scaled_p_val_adapted_receptor', 'scaled_avg_exprs_ligand', 'scaled_avg_exprs_receptor', 'scaled_p_val_adapted_ligand_group', 'scaled_p_val_adapted_receptor_group', 'scaled_activity'))
## # A tibble: 1,212 × 11
##    sender receiver ligand receptor scaled_p_val_adapted_ligand scaled_p_val_adapted_re…¹ scaled_avg_exprs_lig…² scaled_avg_exprs_rec…³ scaled_p_val_adapted…⁴ scaled_p_val_adapted…⁵ scaled_activity
##    <chr>  <chr>    <chr>  <chr>                          <dbl>                     <dbl>                  <dbl>                  <dbl>                  <dbl>                  <dbl>           <dbl>
##  1 NK     CD8 T    Ptprc  Dpp4                           0.871                     0.846                  1.00                   1.00                   0.844                  0.833           0.660
##  2 Mono   CD8 T    Ptprc  Dpp4                           0.841                     0.846                  0.867                  1.00                   0.844                  0.833           0.660
##  3 Mono   CD8 T    Cxcl10 Dpp4                           0.958                     0.846                  1.00                   1.00                   0.926                  0.833           0.309
##  4 Mono   CD8 T    Cxcl9  Dpp4                           0.974                     0.846                  1.00                   1.00                   0.779                  0.833           0.263
##  5 Treg   CD8 T    Ptprc  Dpp4                           0.754                     0.846                  0.741                  1.00                   0.844                  0.833           0.660
##  6 Mono   CD8 T    Cxcl11 Dpp4                           0.972                     0.846                  1.00                   1.00                   0.721                  0.833           0.273
##  7 B      CD8 T    Ptprc  Dpp4                           0.747                     0.846                  0.666                  1.00                   0.844                  0.833           0.660
##  8 DC     CD8 T    Ccl22  Dpp4                           0.997                     0.846                  1.00                   1.00                   0.545                  0.833           0.361
##  9 DC     CD8 T    Icam1  Il2rg                          0.878                     0.723                  1.00                   0.995                  0.713                  0.985           0.273
## 10 DC     CD8 T    Il15   Il2rg                          0.964                     0.723                  1.00                   0.995                  0.598                  0.985           0.214
## # ℹ 1,202 more rows
## # ℹ abbreviated names: ¹​scaled_p_val_adapted_receptor, ²​scaled_avg_exprs_ligand, ³​scaled_avg_exprs_receptor, ⁴​scaled_p_val_adapted_ligand_group, ⁵​scaled_p_val_adapted_receptor_group
```
…
