…
### Interpret the NicheNet analysis output

#### Ligand activity analysis results

A first thing NicheNet does, is prioritizing ligands based on predicted
ligand activity. To see the ranking of these ligands, run the following
command:

``` r
nichenet_output$ligand_activities
## # A tibble: 73 × 6
##    test_ligand auroc  aupr aupr_corrected pearson  rank
##    <chr>       <dbl> <dbl>          <dbl>   <dbl> <dbl>
##  1 Ebi3        0.663 0.390          0.244   0.301     1
##  2 Ptprc       0.642 0.310          0.165   0.167     2
##  3 H2-M3       0.608 0.292          0.146   0.179     3
##  4 H2-M2       0.611 0.279          0.133   0.153     5
##  5 H2-T10      0.611 0.279          0.133   0.153     5
##  6 H2-T22      0.611 0.279          0.133   0.153     5
##  7 H2-T23      0.611 0.278          0.132   0.153     7
##  8 H2-K1       0.605 0.268          0.122   0.142     8
##  9 H2-Q4       0.605 0.268          0.122   0.141    10
## 10 H2-Q6       0.605 0.268          0.122   0.141    10
## # ℹ 63 more rows
```
…
