…
#### Ligand activity analysis results

To see the ranking of ligands based on the predicted ligand activity:

``` r
nichenet_output$ligand_activities
## # A tibble: 127 × 6
##    test_ligand auroc  aupr aupr_corrected pearson  rank
##    <chr>       <dbl> <dbl>          <dbl>   <dbl> <dbl>
##  1 Il27        0.682 0.391         0.316    0.445     1
##  2 Ebi3        0.666 0.264         0.189    0.256     2
##  3 Tnf         0.671 0.205         0.131    0.249     3
##  4 Ptprc       0.660 0.198         0.124    0.168     4
##  5 H2-Eb1      0.656 0.195         0.120    0.182     5
##  6 Vsig10      0.649 0.194         0.119    0.170     6
##  7 H2-M3       0.632 0.192         0.118    0.185     7
##  8 Clcf1       0.637 0.175         0.101    0.162     8
##  9 H2-M2       0.634 0.174         0.0989   0.146    11
## 10 H2-T-ps     0.634 0.174         0.0989   0.146    11
## # ℹ 117 more rows
```
…
``` r
nichenet_output$ligand_target_df # weight column = regulatory potential
## # A tibble: 656 × 3
##    ligand target weight
##    <chr>  <chr>   <dbl>
##  1 Il27   Adar    0.163
##  2 Il27   B2m     0.170
##  3 Il27   Bst2    0.111
##  4 Il27   Calhm6  0.129
##  5 Il27   Cd274   0.111
##  6 Il27   Cxcl10  0.178
##  7 Il27   Cxcr4   0.178
##  8 Il27   Ddx58   0.227
##  9 Il27   Ddx60   0.160
## 10 Il27   Dtx3l   0.150
## # ℹ 646 more rows
```
…
``` r
nichenet_output$ligand_receptor_df # weight column accords to number of data sources that document this interaction
## # A tibble: 54 × 3
##    ligand receptor weight
##    <chr>  <chr>     <dbl>
##  1 Adam17 Il6ra     0.447
##  2 Adam17 Itgb1     0.454
##  3 Adam17 Notch1    1.05 
##  4 App    Cd74      0.670
##  5 App    Sorl1     0.922
##  6 Ccl22  Ccr7      0.679
##  7 Ccl22  Dpp4      0.717
##  8 Ccl5   Cxcr3     0.848
##  9 Cd320  Jaml      0.507
## 10 Cd320  Tmem167   0.432
## # ℹ 44 more rows
```
…
