…
We will first show the results of the sender-agnostic approach.

``` r
ligand_activities <- predict_ligand_activities(geneset = geneset_oi,
                                               background_expressed_genes = background_expressed_genes,
                                               ligand_target_matrix = ligand_target_matrix,
                                               potential_ligands = potential_ligands)

ligand_activities <- ligand_activities %>% arrange(-aupr_corrected) %>% mutate(rank = rank(desc(aupr_corrected)))
ligand_activities
## # A tibble: 483 × 6
##    test_ligand auroc  aupr aupr_corrected pearson  rank
##    <chr>       <dbl> <dbl>          <dbl>   <dbl> <dbl>
##  1 Ifna1       0.714 0.433          0.358   0.498     1
##  2 Ifnb1       0.711 0.401          0.327   0.433     2
##  3 Ifnl3       0.683 0.392          0.317   0.433     3
##  4 Il27        0.682 0.391          0.316   0.445     4
##  5 Ifng        0.732 0.382          0.307   0.451     5
##  6 Ifnk        0.671 0.282          0.207   0.272     6
##  7 Ifne        0.667 0.279          0.204   0.289     7
##  8 Ebi3        0.666 0.264          0.189   0.256     8
##  9 Ifnl2       0.658 0.252          0.177   0.246     9
## 10 Ifna2       0.669 0.247          0.172   0.205    10
## # ℹ 473 more rows
```
…
