…
Now perform the ligand activity analysis: infer how well NicheNet's ligand-target potential scores can predict whether a gene belongs to the p-EMT program or not.

``` r
ligand_activities = predict_ligand_activities(geneset = pemt_geneset, background_expressed_genes = background_expressed_genes, ligand_target_matrix = ligand_target_matrix, potential_ligands = potential_ligands)
```

Now, we want to rank the ligands based on their ligand activity. In our validation study, we showed that the pearson correlation between a ligand's target predictions and the observed transcriptional response was the most informative measure to define ligand activity. Therefore, we will rank the ligands based on their pearson correlation coefficient.

``` r
ligand_activities %>% arrange(-pearson)
## # A tibble: 134 x 4
##    test_ligand auroc   aupr pearson
##    <chr>       <dbl>  <dbl>   <dbl>
##  1 AGT         0.676 0.0624   0.122
##  2 CXCL12      0.676 0.0549   0.121
##  3 TGFB3       0.696 0.0505   0.119
##  4 IL6         0.681 0.0502   0.115
##  5 CTGF        0.690 0.0502   0.114
##  6 INHBA       0.698 0.0523   0.113
##  7 TNC         0.691 0.0469   0.108
##  8 PTHLH       0.655 0.0511   0.108
##  9 ADAM17      0.663 0.0454   0.105
## 10 BMP5        0.713 0.0423   0.104
## # ... with 124 more rows
…
We see that the p-EMT genes are enriched in the top-predicted target genes. To test this, we will now apply a Fisher's exact test for every cross-validation round and report the average p-value.

``` r
target_prediction_performances_discrete_fisher = pemt_gene_predictions_top20_list %>% lapply(calculate_fraction_top_predicted_fisher, quantile_cutoff = 0.95) 
target_prediction_performances_discrete_fisher %>% unlist() %>% mean()
## [1] 4.640894e-09
```

Finally, we will look at which p-EMT genes are well-predicted in every cross-validation round.

``` r
# get top predicted genes
top_predicted_genes = seq(length(pemt_gene_predictions_top20_list)) %>% lapply(get_top_predicted_genes,pemt_gene_predictions_top20_list) %>% reduce(full_join, by = c("gene","true_target"))
top_predicted_genes %>% filter(true_target)
## # A tibble: 27 x 4
##    gene     true_target predicted_top_target_rou~ predicted_top_target_rou~
##    <chr>    <lgl>       <lgl>                     <lgl>                    
##  1 MMP1     TRUE        TRUE                      TRUE                     
##  2 MMP2     TRUE        TRUE                      TRUE                     
##  3 COL1A1   TRUE        TRUE                      TRUE                     
##  4 SERPINE1 TRUE        TRUE                      TRUE                     
##  5 MT2A     TRUE        TRUE                      TRUE                     
##  6 INHBA    TRUE        TRUE                      NA                       
##  7 C1S      TRUE        TRUE                      TRUE                     
##  8 MMP10    TRUE        TRUE                      TRUE                     
##  9 TNC      TRUE        TRUE                      TRUE                     
## 10 PLAU     TRUE        TRUE                      TRUE                     
## # ... with 17 more rows
```
…
